%YAML 1.1
%TAG !u! tag:unity3d.com,2011:
--- !u!65 &1221396992687243822
BoxCollider:
  m_ObjectHideFlags: 0
  m_CorrespondingSourceObject: {fileID: 0}
  m_PrefabInstance: {fileID: 0}
  m_PrefabAsset: {fileID: 0}
  m_GameObject: {fileID: 1134808359787557954}
  m_Material: {fileID: 0}
  m_IsTrigger: 0
  m_Enabled: 1
  serializedVersion: 2
  m_Size: {x: 21.35, y: 20.8, z: 16.3}
  m_Center: {x: 0.00000023841858, y: 5.13, z: -0.028001308}
--- !u!1 &1134808359842559631
GameObject:
  m_ObjectHideFlags: 0
  m_CorrespondingSourceObject: {fileID: 0}
  m_PrefabInstance: {fileID: 0}
  m_PrefabAsset: {fileID: 0}
  serializedVersion: 6
  m_Component:
  - component: {fileID: 1134808359842559630}
  - component: {fileID: 42846952}
  - component: {fileID: 1353530734757015808}
  m_Layer: 0
  m_Name: Building2x2
  m_TagString: Untagged
  m_Icon: {fileID: 0}
  m_NavMeshLayer: 0
  m_StaticEditorFlags: 0
  m_IsActive: 1
--- !u!4 &1134808359842559630
Transform:
  m_ObjectHideFlags: 0
  m_CorrespondingSourceObject: {fileID: 0}
  m_PrefabInstance: {fileID: 0}
  m_PrefabAsset: {fileID: 0}
  m_GameObject: {fileID: 1134808359842559631}
  m_LocalRotation: {x: 0, y: 0, z: 0, w: 1}
  m_LocalPosition: {x: 0, y: 5.5, z: 0}
  m_LocalScale: {x: 1, y: 1, z: 1}
  m_Children:
  - {fileID: 1134808359787266312}
  - {fileID: 1134808360282885116}
  m_Father: {fileID: 0}
  m_RootOrder: 0
  m_LocalEulerAnglesHint: {x: 0, y: 0, z: 0}
--- !u!114 &42846952
MonoBehaviour:
  m_ObjectHideFlags: 0
  m_CorrespondingSourceObject: {fileID: 0}
  m_PrefabInstance: {fileID: 0}
  m_PrefabAsset: {fileID: 0}
  m_GameObject: {fileID: 1134808359842559631}
  m_Enabled: 1
  m_EditorHideFlags: 0
  m_Script: {fileID: 11500000, guid: aafc1ce9398d4cb8b155327319e0c7ce, type: 3}
  m_Name: 
  m_EditorClassIdentifier: 
  buildingType: 0
  displayedName: Residence
  price:
    Gold: 100
    Steel: 0
    Wood: 0
  buildingSize:
    X: 2
    Z: 2
--- !u!114 &1353530734757015808
MonoBehaviour:
  m_ObjectHideFlags: 0
  m_CorrespondingSourceObject: {fileID: 0}
  m_PrefabInstance: {fileID: 0}
  m_PrefabAsset: {fileID: 0}
  m_GameObject: {fileID: 1134808359842559631}
  m_Enabled: 1
  m_EditorHideFlags: 0
  m_Script: {fileID: 11500000, guid: bacf78e811fe475f9baa2b91071ec250, type: 3}
  m_Name: 
  m_EditorClassIdentifier: 
  playerResources:
    Gold: 100
    Steel: 0
    Wood: 0
  productionTime: 10
  autoStart: 1
  progress: 0
--- !u!1 &1134808360282885117
GameObject:
  m_ObjectHideFlags: 0
  m_CorrespondingSourceObject: {fileID: 0}
  m_PrefabInstance: {fileID: 0}
  m_PrefabAsset: {fileID: 0}
  serializedVersion: 6
  m_Component:
  - component: {fileID: 1134808360282885116}
  - component: {fileID: 1134808360282885105}
  - component: {fileID: 1134808360282885118}
  - component: {fileID: 1134808360282885119}
  m_Layer: 0
  m_Name: Bottom
  m_TagString: Untagged
  m_Icon: {fileID: 0}
  m_NavMeshLayer: 0
  m_StaticEditorFlags: 0
  m_IsActive: 1
--- !u!4 &1134808360282885116
Transform:
  m_ObjectHideFlags: 0
  m_CorrespondingSourceObject: {fileID: 0}
  m_PrefabInstance: {fileID: 0}
  m_PrefabAsset: {fileID: 0}
  m_GameObject: {fileID: 1134808360282885117}
  m_LocalRotation: {x: -0, y: -0, z: -0, w: 1}
  m_LocalPosition: {x: 10.4, y: -5.5999994, z: -10.3}
  m_LocalScale: {x: 20, y: 1, z: 20}
  m_Children: []
  m_Father: {fileID: 1134808359842559630}
  m_RootOrder: 1
  m_LocalEulerAnglesHint: {x: 0, y: 0, z: 0}
--- !u!33 &1134808360282885105
MeshFilter:
  m_ObjectHideFlags: 0
  m_CorrespondingSourceObject: {fileID: 0}
  m_PrefabInstance: {fileID: 0}
  m_PrefabAsset: {fileID: 0}
  m_GameObject: {fileID: 1134808360282885117}
  m_Mesh: {fileID: 10202, guid: 0000000000000000e000000000000000, type: 0}
--- !u!23 &1134808360282885118
MeshRenderer:
  m_ObjectHideFlags: 0
  m_CorrespondingSourceObject: {fileID: 0}
  m_PrefabInstance: {fileID: 0}
  m_PrefabAsset: {fileID: 0}
  m_GameObject: {fileID: 1134808360282885117}
  m_Enabled: 1
  m_CastShadows: 1
  m_ReceiveShadows: 1
  m_DynamicOccludee: 1
  m_MotionVectors: 1
  m_LightProbeUsage: 1
  m_ReflectionProbeUsage: 1
  m_RenderingLayerMask: 1
  m_RendererPriority: 0
  m_Materials:
  - {fileID: 2100000, guid: a31fa2c697e7942c8a0ebd68ea2e4b43, type: 2}
  m_StaticBatchInfo:
    firstSubMesh: 0
    subMeshCount: 0
  m_StaticBatchRoot: {fileID: 0}
  m_ProbeAnchor: {fileID: 0}
  m_LightProbeVolumeOverride: {fileID: 0}
  m_ScaleInLightmap: 1
  m_PreserveUVs: 0
  m_IgnoreNormalsForChartDetection: 0
  m_ImportantGI: 0
  m_StitchLightmapSeams: 0
  m_SelectedEditorRenderState: 3
  m_MinimumChartSize: 4
  m_AutoUVMaxDistance: 0.5
  m_AutoUVMaxAngle: 89
  m_LightmapParameters: {fileID: 0}
  m_SortingLayerID: 0
  m_SortingLayer: 0
  m_SortingOrder: 0
--- !u!65 &1134808360282885119
BoxCollider:
  m_ObjectHideFlags: 0
  m_CorrespondingSourceObject: {fileID: 0}
  m_PrefabInstance: {fileID: 0}
  m_PrefabAsset: {fileID: 0}
  m_GameObject: {fileID: 1134808360282885117}
  m_Material: {fileID: 0}
  m_IsTrigger: 0
  m_Enabled: 1
  serializedVersion: 2
  m_Size: {x: 1, y: 1, z: 1}
  m_Center: {x: 0, y: 0, z: 0}
--- !u!1001 &1134808358641407925
PrefabInstance:
  m_ObjectHideFlags: 0
  serializedVersion: 2
  m_Modification:
    m_TransformParent: {fileID: 1134808359787266312}
    m_Modifications:
    - target: {fileID: 140260, guid: 3bb902e869a9e9647a693b910b597540, type: 3}
      propertyPath: m_Name
      value: Window 5
      objectReference: {fileID: 0}
    - target: {fileID: 406922, guid: 3bb902e869a9e9647a693b910b597540, type: 3}
      propertyPath: m_LocalPosition.x
      value: -6.67
      objectReference: {fileID: 0}
    - target: {fileID: 406922, guid: 3bb902e869a9e9647a693b910b597540, type: 3}
      propertyPath: m_LocalPosition.y
      value: 6.54
      objectReference: {fileID: 0}
    - target: {fileID: 406922, guid: 3bb902e869a9e9647a693b910b597540, type: 3}
      propertyPath: m_LocalPosition.z
      value: -0.03
      objectReference: {fileID: 0}
    - target: {fileID: 406922, guid: 3bb902e869a9e9647a693b910b597540, type: 3}
      propertyPath: m_LocalRotation.x
      value: 0
      objectReference: {fileID: 0}
    - target: {fileID: 406922, guid: 3bb902e869a9e9647a693b910b597540, type: 3}
      propertyPath: m_LocalRotation.y
      value: 0.7071068
      objectReference: {fileID: 0}
    - target: {fileID: 406922, guid: 3bb902e869a9e9647a693b910b597540, type: 3}
      propertyPath: m_LocalRotation.z
      value: 0
      objectReference: {fileID: 0}
    - target: {fileID: 406922, guid: 3bb902e869a9e9647a693b910b597540, type: 3}
      propertyPath: m_LocalRotation.w
      value: 0.7071067
      objectReference: {fileID: 0}
    - target: {fileID: 406922, guid: 3bb902e869a9e9647a693b910b597540, type: 3}
      propertyPath: m_RootOrder
      value: 6
      objectReference: {fileID: 0}
    - target: {fileID: 406922, guid: 3bb902e869a9e9647a693b910b597540, type: 3}
      propertyPath: m_LocalEulerAnglesHint.x
      value: 0
      objectReference: {fileID: 0}
    - target: {fileID: 406922, guid: 3bb902e869a9e9647a693b910b597540, type: 3}
      propertyPath: m_LocalEulerAnglesHint.y
      value: 0
      objectReference: {fileID: 0}
    - target: {fileID: 406922, guid: 3bb902e869a9e9647a693b910b597540, type: 3}
      propertyPath: m_LocalEulerAnglesHint.z
      value: 0
      objectReference: {fileID: 0}
    m_RemovedComponents: []
  m_SourcePrefab: {fileID: 100100000, guid: 3bb902e869a9e9647a693b910b597540, type: 3}
--- !u!1001 &1134808358680842922
PrefabInstance:
  m_ObjectHideFlags: 0
  serializedVersion: 2
  m_Modification:
    m_TransformParent: {fileID: 1134808359787266312}
    m_Modifications:
    - target: {fileID: 125754, guid: 46fff5d42f5087d4f8b7dea478c55862, type: 3}
      propertyPath: m_Name
      value: Window 1
      objectReference: {fileID: 0}
    - target: {fileID: 474578, guid: 46fff5d42f5087d4f8b7dea478c55862, type: 3}
      propertyPath: m_LocalPosition.x
      value: -3.06
      objectReference: {fileID: 0}
    - target: {fileID: 474578, guid: 46fff5d42f5087d4f8b7dea478c55862, type: 3}
      propertyPath: m_LocalPosition.y
      value: -0.75
      objectReference: {fileID: 0}
    - target: {fileID: 474578, guid: 46fff5d42f5087d4f8b7dea478c55862, type: 3}
      propertyPath: m_LocalPosition.z
      value: -6.94
      objectReference: {fileID: 0}
    - target: {fileID: 474578, guid: 46fff5d42f5087d4f8b7dea478c55862, type: 3}
      propertyPath: m_LocalRotation.x
      value: 0
      objectReference: {fileID: 0}
    - target: {fileID: 474578, guid: 46fff5d42f5087d4f8b7dea478c55862, type: 3}
      propertyPath: m_LocalRotation.y
      value: 0
      objectReference: {fileID: 0}
    - target: {fileID: 474578, guid: 46fff5d42f5087d4f8b7dea478c55862, type: 3}
      propertyPath: m_LocalRotation.z
      value: 0
      objectReference: {fileID: 0}
    - target: {fileID: 474578, guid: 46fff5d42f5087d4f8b7dea478c55862, type: 3}
      propertyPath: m_LocalRotation.w
      value: 1
      objectReference: {fileID: 0}
    - target: {fileID: 474578, guid: 46fff5d42f5087d4f8b7dea478c55862, type: 3}
      propertyPath: m_RootOrder
      value: 1
      objectReference: {fileID: 0}
    - target: {fileID: 474578, guid: 46fff5d42f5087d4f8b7dea478c55862, type: 3}
      propertyPath: m_LocalEulerAnglesHint.x
      value: 0
      objectReference: {fileID: 0}
    - target: {fileID: 474578, guid: 46fff5d42f5087d4f8b7dea478c55862, type: 3}
      propertyPath: m_LocalEulerAnglesHint.y
      value: 0
      objectReference: {fileID: 0}
    - target: {fileID: 474578, guid: 46fff5d42f5087d4f8b7dea478c55862, type: 3}
      propertyPath: m_LocalEulerAnglesHint.z
      value: 0
      objectReference: {fileID: 0}
    m_RemovedComponents: []
  m_SourcePrefab: {fileID: 100100000, guid: 46fff5d42f5087d4f8b7dea478c55862, type: 3}
--- !u!1001 &1134808358907486949
PrefabInstance:
  m_ObjectHideFlags: 0
  serializedVersion: 2
  m_Modification:
    m_TransformParent: {fileID: 1134808359787266312}
    m_Modifications:
    - target: {fileID: 140260, guid: 3bb902e869a9e9647a693b910b597540, type: 3}
      propertyPath: m_Name
      value: Window 7
      objectReference: {fileID: 0}
    - target: {fileID: 406922, guid: 3bb902e869a9e9647a693b910b597540, type: 3}
      propertyPath: m_LocalPosition.x
      value: 2.18
      objectReference: {fileID: 0}
    - target: {fileID: 406922, guid: 3bb902e869a9e9647a693b910b597540, type: 3}
      propertyPath: m_LocalPosition.y
      value: -1.13
      objectReference: {fileID: 0}
    - target: {fileID: 406922, guid: 3bb902e869a9e9647a693b910b597540, type: 3}
      propertyPath: m_LocalPosition.z
      value: 7.02
      objectReference: {fileID: 0}
    - target: {fileID: 406922, guid: 3bb902e869a9e9647a693b910b597540, type: 3}
      propertyPath: m_LocalRotation.x
      value: 0
      objectReference: {fileID: 0}
    - target: {fileID: 406922, guid: 3bb902e869a9e9647a693b910b597540, type: 3}
      propertyPath: m_LocalRotation.y
      value: 1
      objectReference: {fileID: 0}
    - target: {fileID: 406922, guid: 3bb902e869a9e9647a693b910b597540, type: 3}
      propertyPath: m_LocalRotation.z
      value: 0
      objectReference: {fileID: 0}
    - target: {fileID: 406922, guid: 3bb902e869a9e9647a693b910b597540, type: 3}
      propertyPath: m_LocalRotation.w
      value: -0.00000016292068
      objectReference: {fileID: 0}
    - target: {fileID: 406922, guid: 3bb902e869a9e9647a693b910b597540, type: 3}
      propertyPath: m_RootOrder
      value: 8
      objectReference: {fileID: 0}
    - target: {fileID: 406922, guid: 3bb902e869a9e9647a693b910b597540, type: 3}
      propertyPath: m_LocalEulerAnglesHint.x
      value: 0
      objectReference: {fileID: 0}
    - target: {fileID: 406922, guid: 3bb902e869a9e9647a693b910b597540, type: 3}
      propertyPath: m_LocalEulerAnglesHint.y
      value: 0
      objectReference: {fileID: 0}
    - target: {fileID: 406922, guid: 3bb902e869a9e9647a693b910b597540, type: 3}
      propertyPath: m_LocalEulerAnglesHint.z
      value: 0
      objectReference: {fileID: 0}
    m_RemovedComponents: []
  m_SourcePrefab: {fileID: 100100000, guid: 3bb902e869a9e9647a693b910b597540, type: 3}
--- !u!1001 &1134808358998285529
PrefabInstance:
  m_ObjectHideFlags: 0
  serializedVersion: 2
  m_Modification:
    m_TransformParent: {fileID: 1134808359787266312}
    m_Modifications:
    - target: {fileID: 125754, guid: 46fff5d42f5087d4f8b7dea478c55862, type: 3}
      propertyPath: m_Name
      value: Window 3
      objectReference: {fileID: 0}
    - target: {fileID: 474578, guid: 46fff5d42f5087d4f8b7dea478c55862, type: 3}
      propertyPath: m_LocalPosition.x
      value: -2.91
      objectReference: {fileID: 0}
    - target: {fileID: 474578, guid: 46fff5d42f5087d4f8b7dea478c55862, type: 3}
      propertyPath: m_LocalPosition.y
      value: 6.66
      objectReference: {fileID: 0}
    - target: {fileID: 474578, guid: 46fff5d42f5087d4f8b7dea478c55862, type: 3}
      propertyPath: m_LocalPosition.z
      value: -6.94
      objectReference: {fileID: 0}
    - target: {fileID: 474578, guid: 46fff5d42f5087d4f8b7dea478c55862, type: 3}
      propertyPath: m_LocalRotation.x
      value: 0
      objectReference: {fileID: 0}
    - target: {fileID: 474578, guid: 46fff5d42f5087d4f8b7dea478c55862, type: 3}
      propertyPath: m_LocalRotation.y
      value: 0
      objectReference: {fileID: 0}
    - target: {fileID: 474578, guid: 46fff5d42f5087d4f8b7dea478c55862, type: 3}
      propertyPath: m_LocalRotation.z
      value: 0
      objectReference: {fileID: 0}
    - target: {fileID: 474578, guid: 46fff5d42f5087d4f8b7dea478c55862, type: 3}
      propertyPath: m_LocalRotation.w
      value: 1
      objectReference: {fileID: 0}
    - target: {fileID: 474578, guid: 46fff5d42f5087d4f8b7dea478c55862, type: 3}
      propertyPath: m_RootOrder
      value: 3
      objectReference: {fileID: 0}
    - target: {fileID: 474578, guid: 46fff5d42f5087d4f8b7dea478c55862, type: 3}
      propertyPath: m_LocalEulerAnglesHint.x
      value: 0
      objectReference: {fileID: 0}
    - target: {fileID: 474578, guid: 46fff5d42f5087d4f8b7dea478c55862, type: 3}
      propertyPath: m_LocalEulerAnglesHint.y
      value: 0
      objectReference: {fileID: 0}
    - target: {fileID: 474578, guid: 46fff5d42f5087d4f8b7dea478c55862, type: 3}
      propertyPath: m_LocalEulerAnglesHint.z
      value: 0
      objectReference: {fileID: 0}
    m_RemovedComponents: []
  m_SourcePrefab: {fileID: 100100000, guid: 46fff5d42f5087d4f8b7dea478c55862, type: 3}
--- !u!1001 &1134808359012557349
PrefabInstance:
  m_ObjectHideFlags: 0
  serializedVersion: 2
  m_Modification:
    m_TransformParent: {fileID: 1134808359787266312}
    m_Modifications:
    - target: {fileID: 125754, guid: 46fff5d42f5087d4f8b7dea478c55862, type: 3}
      propertyPath: m_Name
      value: Window 8
      objectReference: {fileID: 0}
    - target: {fileID: 474578, guid: 46fff5d42f5087d4f8b7dea478c55862, type: 3}
      propertyPath: m_LocalPosition.x
      value: 6.53
      objectReference: {fileID: 0}
    - target: {fileID: 474578, guid: 46fff5d42f5087d4f8b7dea478c55862, type: 3}
      propertyPath: m_LocalPosition.y
      value: 6.58
      objectReference: {fileID: 0}
    - target: {fileID: 474578, guid: 46fff5d42f5087d4f8b7dea478c55862, type: 3}
      propertyPath: m_LocalPosition.z
      value: -0.28
      objectReference: {fileID: 0}
    - target: {fileID: 474578, guid: 46fff5d42f5087d4f8b7dea478c55862, type: 3}
      propertyPath: m_LocalRotation.x
      value: 0
      objectReference: {fileID: 0}
    - target: {fileID: 474578, guid: 46fff5d42f5087d4f8b7dea478c55862, type: 3}
      propertyPath: m_LocalRotation.y
      value: -0.7071068
      objectReference: {fileID: 0}
    - target: {fileID: 474578, guid: 46fff5d42f5087d4f8b7dea478c55862, type: 3}
      propertyPath: m_LocalRotation.z
      value: 0
      objectReference: {fileID: 0}
    - target: {fileID: 474578, guid: 46fff5d42f5087d4f8b7dea478c55862, type: 3}
      propertyPath: m_LocalRotation.w
      value: 0.7071067
      objectReference: {fileID: 0}
    - target: {fileID: 474578, guid: 46fff5d42f5087d4f8b7dea478c55862, type: 3}
      propertyPath: m_RootOrder
      value: 9
      objectReference: {fileID: 0}
    - target: {fileID: 474578, guid: 46fff5d42f5087d4f8b7dea478c55862, type: 3}
      propertyPath: m_LocalEulerAnglesHint.x
      value: 0
      objectReference: {fileID: 0}
    - target: {fileID: 474578, guid: 46fff5d42f5087d4f8b7dea478c55862, type: 3}
      propertyPath: m_LocalEulerAnglesHint.y
      value: 0
      objectReference: {fileID: 0}
    - target: {fileID: 474578, guid: 46fff5d42f5087d4f8b7dea478c55862, type: 3}
      propertyPath: m_LocalEulerAnglesHint.z
      value: 0
      objectReference: {fileID: 0}
    - target: {fileID: 474578, guid: 46fff5d42f5087d4f8b7dea478c55862, type: 3}
      propertyPath: m_LocalScale.x
      value: 2
      objectReference: {fileID: 0}
    - target: {fileID: 474578, guid: 46fff5d42f5087d4f8b7dea478c55862, type: 3}
      propertyPath: m_LocalScale.y
      value: 2
      objectReference: {fileID: 0}
    m_RemovedComponents: []
  m_SourcePrefab: {fileID: 100100000, guid: 46fff5d42f5087d4f8b7dea478c55862, type: 3}
--- !u!1001 &1134808359381864370
PrefabInstance:
  m_ObjectHideFlags: 0
  serializedVersion: 2
  m_Modification:
    m_TransformParent: {fileID: 1134808359787266312}
    m_Modifications:
    - target: {fileID: 140260, guid: 3bb902e869a9e9647a693b910b597540, type: 3}
      propertyPath: m_Name
      value: Window
      objectReference: {fileID: 0}
    - target: {fileID: 406922, guid: 3bb902e869a9e9647a693b910b597540, type: 3}
      propertyPath: m_LocalPosition.x
      value: -6.67
      objectReference: {fileID: 0}
    - target: {fileID: 406922, guid: 3bb902e869a9e9647a693b910b597540, type: 3}
      propertyPath: m_LocalPosition.y
      value: 6.54
      objectReference: {fileID: 0}
    - target: {fileID: 406922, guid: 3bb902e869a9e9647a693b910b597540, type: 3}
      propertyPath: m_LocalPosition.z
      value: 4.28
      objectReference: {fileID: 0}
    - target: {fileID: 406922, guid: 3bb902e869a9e9647a693b910b597540, type: 3}
      propertyPath: m_LocalRotation.x
      value: 0
      objectReference: {fileID: 0}
    - target: {fileID: 406922, guid: 3bb902e869a9e9647a693b910b597540, type: 3}
      propertyPath: m_LocalRotation.y
      value: 0.7071068
      objectReference: {fileID: 0}
    - target: {fileID: 406922, guid: 3bb902e869a9e9647a693b910b597540, type: 3}
      propertyPath: m_LocalRotation.z
      value: 0
      objectReference: {fileID: 0}
    - target: {fileID: 406922, guid: 3bb902e869a9e9647a693b910b597540, type: 3}
      propertyPath: m_LocalRotation.w
      value: 0.7071067
      objectReference: {fileID: 0}
    - target: {fileID: 406922, guid: 3bb902e869a9e9647a693b910b597540, type: 3}
      propertyPath: m_RootOrder
      value: 4
      objectReference: {fileID: 0}
    - target: {fileID: 406922, guid: 3bb902e869a9e9647a693b910b597540, type: 3}
      propertyPath: m_LocalEulerAnglesHint.x
      value: 0
      objectReference: {fileID: 0}
    - target: {fileID: 406922, guid: 3bb902e869a9e9647a693b910b597540, type: 3}
      propertyPath: m_LocalEulerAnglesHint.y
      value: 0
      objectReference: {fileID: 0}
    - target: {fileID: 406922, guid: 3bb902e869a9e9647a693b910b597540, type: 3}
      propertyPath: m_LocalEulerAnglesHint.z
      value: 0
      objectReference: {fileID: 0}
    m_RemovedComponents: []
  m_SourcePrefab: {fileID: 100100000, guid: 3bb902e869a9e9647a693b910b597540, type: 3}
--- !u!1001 &1134808359637144301
PrefabInstance:
  m_ObjectHideFlags: 0
  serializedVersion: 2
  m_Modification:
    m_TransformParent: {fileID: 1134808359787266312}
    m_Modifications:
    - target: {fileID: 113422, guid: c82ae9a52d7fbcf468c00e3d185b7cbe, type: 3}
      propertyPath: m_Name
      value: Duct 4
      objectReference: {fileID: 0}
    - target: {fileID: 429918, guid: c82ae9a52d7fbcf468c00e3d185b7cbe, type: 3}
      propertyPath: m_LocalPosition.x
      value: -2.19
      objectReference: {fileID: 0}
    - target: {fileID: 429918, guid: c82ae9a52d7fbcf468c00e3d185b7cbe, type: 3}
      propertyPath: m_LocalPosition.y
      value: 11.41
      objectReference: {fileID: 0}
    - target: {fileID: 429918, guid: c82ae9a52d7fbcf468c00e3d185b7cbe, type: 3}
      propertyPath: m_LocalPosition.z
      value: 0.04
      objectReference: {fileID: 0}
    - target: {fileID: 429918, guid: c82ae9a52d7fbcf468c00e3d185b7cbe, type: 3}
      propertyPath: m_LocalRotation.x
      value: 0
      objectReference: {fileID: 0}
    - target: {fileID: 429918, guid: c82ae9a52d7fbcf468c00e3d185b7cbe, type: 3}
      propertyPath: m_LocalRotation.y
      value: 0
      objectReference: {fileID: 0}
    - target: {fileID: 429918, guid: c82ae9a52d7fbcf468c00e3d185b7cbe, type: 3}
      propertyPath: m_LocalRotation.z
      value: 0
      objectReference: {fileID: 0}
    - target: {fileID: 429918, guid: c82ae9a52d7fbcf468c00e3d185b7cbe, type: 3}
      propertyPath: m_LocalRotation.w
      value: 1
      objectReference: {fileID: 0}
    - target: {fileID: 429918, guid: c82ae9a52d7fbcf468c00e3d185b7cbe, type: 3}
      propertyPath: m_RootOrder
      value: 14
      objectReference: {fileID: 0}
    - target: {fileID: 429918, guid: c82ae9a52d7fbcf468c00e3d185b7cbe, type: 3}
      propertyPath: m_LocalEulerAnglesHint.x
      value: 0
      objectReference: {fileID: 0}
    - target: {fileID: 429918, guid: c82ae9a52d7fbcf468c00e3d185b7cbe, type: 3}
      propertyPath: m_LocalEulerAnglesHint.y
      value: 0
      objectReference: {fileID: 0}
    - target: {fileID: 429918, guid: c82ae9a52d7fbcf468c00e3d185b7cbe, type: 3}
      propertyPath: m_LocalEulerAnglesHint.z
      value: 0
      objectReference: {fileID: 0}
    m_RemovedComponents: []
  m_SourcePrefab: {fileID: 100100000, guid: c82ae9a52d7fbcf468c00e3d185b7cbe, type: 3}
--- !u!1001 &1134808359645445913
PrefabInstance:
  m_ObjectHideFlags: 0
  serializedVersion: 2
  m_Modification:
    m_TransformParent: {fileID: 1134808359787266312}
    m_Modifications:
    - target: {fileID: 140260, guid: 3bb902e869a9e9647a693b910b597540, type: 3}
      propertyPath: m_Name
      value: Window 4
      objectReference: {fileID: 0}
    - target: {fileID: 406922, guid: 3bb902e869a9e9647a693b910b597540, type: 3}
      propertyPath: m_LocalPosition.x
      value: -6.67
      objectReference: {fileID: 0}
    - target: {fileID: 406922, guid: 3bb902e869a9e9647a693b910b597540, type: 3}
      propertyPath: m_LocalPosition.y
      value: 6.54
      objectReference: {fileID: 0}
    - target: {fileID: 406922, guid: 3bb902e869a9e9647a693b910b597540, type: 3}
      propertyPath: m_LocalPosition.z
      value: -4.3
      objectReference: {fileID: 0}
    - target: {fileID: 406922, guid: 3bb902e869a9e9647a693b910b597540, type: 3}
      propertyPath: m_LocalRotation.x
      value: 0
      objectReference: {fileID: 0}
    - target: {fileID: 406922, guid: 3bb902e869a9e9647a693b910b597540, type: 3}
      propertyPath: m_LocalRotation.y
      value: 0.7071068
      objectReference: {fileID: 0}
    - target: {fileID: 406922, guid: 3bb902e869a9e9647a693b910b597540, type: 3}
      propertyPath: m_LocalRotation.z
      value: 0
      objectReference: {fileID: 0}
    - target: {fileID: 406922, guid: 3bb902e869a9e9647a693b910b597540, type: 3}
      propertyPath: m_LocalRotation.w
      value: 0.7071067
      objectReference: {fileID: 0}
    - target: {fileID: 406922, guid: 3bb902e869a9e9647a693b910b597540, type: 3}
      propertyPath: m_RootOrder
      value: 5
      objectReference: {fileID: 0}
    - target: {fileID: 406922, guid: 3bb902e869a9e9647a693b910b597540, type: 3}
      propertyPath: m_LocalEulerAnglesHint.x
      value: 0
      objectReference: {fileID: 0}
    - target: {fileID: 406922, guid: 3bb902e869a9e9647a693b910b597540, type: 3}
      propertyPath: m_LocalEulerAnglesHint.y
      value: 0
      objectReference: {fileID: 0}
    - target: {fileID: 406922, guid: 3bb902e869a9e9647a693b910b597540, type: 3}
      propertyPath: m_LocalEulerAnglesHint.z
      value: 0
      objectReference: {fileID: 0}
    m_RemovedComponents: []
  m_SourcePrefab: {fileID: 100100000, guid: 3bb902e869a9e9647a693b910b597540, type: 3}
--- !u!1001 &1134808359787378252
PrefabInstance:
  m_ObjectHideFlags: 0
  serializedVersion: 2
  m_Modification:
    m_TransformParent: {fileID: 1134808359842559630}
    m_Modifications:
    - target: {fileID: 180750, guid: d68ef7a2a7a25ca499eb4d0024f2ff0d, type: 3}
      propertyPath: m_Name
      value: House Part
      objectReference: {fileID: 0}
    - target: {fileID: 180750, guid: d68ef7a2a7a25ca499eb4d0024f2ff0d, type: 3}
      propertyPath: m_Layer
      value: 30
      objectReference: {fileID: 0}
    - target: {fileID: 440132, guid: d68ef7a2a7a25ca499eb4d0024f2ff0d, type: 3}
      propertyPath: m_LocalPosition.x
      value: 10.5
      objectReference: {fileID: 0}
    - target: {fileID: 440132, guid: d68ef7a2a7a25ca499eb4d0024f2ff0d, type: 3}
      propertyPath: m_LocalPosition.y
      value: 0
      objectReference: {fileID: 0}
    - target: {fileID: 440132, guid: d68ef7a2a7a25ca499eb4d0024f2ff0d, type: 3}
      propertyPath: m_LocalPosition.z
      value: -10
      objectReference: {fileID: 0}
    - target: {fileID: 440132, guid: d68ef7a2a7a25ca499eb4d0024f2ff0d, type: 3}
      propertyPath: m_LocalRotation.x
      value: -0
      objectReference: {fileID: 0}
    - target: {fileID: 440132, guid: d68ef7a2a7a25ca499eb4d0024f2ff0d, type: 3}
      propertyPath: m_LocalRotation.y
      value: -0
      objectReference: {fileID: 0}
    - target: {fileID: 440132, guid: d68ef7a2a7a25ca499eb4d0024f2ff0d, type: 3}
      propertyPath: m_LocalRotation.z
      value: -0
      objectReference: {fileID: 0}
    - target: {fileID: 440132, guid: d68ef7a2a7a25ca499eb4d0024f2ff0d, type: 3}
      propertyPath: m_LocalRotation.w
      value: 1
      objectReference: {fileID: 0}
    - target: {fileID: 440132, guid: d68ef7a2a7a25ca499eb4d0024f2ff0d, type: 3}
      propertyPath: m_RootOrder
      value: 0
      objectReference: {fileID: 0}
    - target: {fileID: 440132, guid: d68ef7a2a7a25ca499eb4d0024f2ff0d, type: 3}
      propertyPath: m_LocalEulerAnglesHint.x
      value: 0
      objectReference: {fileID: 0}
    - target: {fileID: 440132, guid: d68ef7a2a7a25ca499eb4d0024f2ff0d, type: 3}
      propertyPath: m_LocalEulerAnglesHint.y
      value: 0
      objectReference: {fileID: 0}
    - target: {fileID: 440132, guid: d68ef7a2a7a25ca499eb4d0024f2ff0d, type: 3}
      propertyPath: m_LocalEulerAnglesHint.z
      value: 0
      objectReference: {fileID: 0}
    - target: {fileID: 440132, guid: d68ef7a2a7a25ca499eb4d0024f2ff0d, type: 3}
      propertyPath: m_LocalScale.x
      value: 1.1983
      objectReference: {fileID: 0}
    - target: {fileID: 440132, guid: d68ef7a2a7a25ca499eb4d0024f2ff0d, type: 3}
      propertyPath: m_LocalScale.y
      value: 1.1983
      objectReference: {fileID: 0}
    - target: {fileID: 440132, guid: d68ef7a2a7a25ca499eb4d0024f2ff0d, type: 3}
      propertyPath: m_LocalScale.z
      value: 1.1983
      objectReference: {fileID: 0}
    m_RemovedComponents: []
  m_SourcePrefab: {fileID: 100100000, guid: d68ef7a2a7a25ca499eb4d0024f2ff0d, type: 3}
--- !u!1 &1134808359787557954 stripped
GameObject:
  m_CorrespondingSourceObject: {fileID: 180750, guid: d68ef7a2a7a25ca499eb4d0024f2ff0d,
    type: 3}
  m_PrefabInstance: {fileID: 1134808359787378252}
  m_PrefabAsset: {fileID: 0}
--- !u!4 &1134808359787266312 stripped
Transform:
  m_CorrespondingSourceObject: {fileID: 440132, guid: d68ef7a2a7a25ca499eb4d0024f2ff0d,
    type: 3}
  m_PrefabInstance: {fileID: 1134808359787378252}
  m_PrefabAsset: {fileID: 0}
--- !u!1001 &1134808359854931166
PrefabInstance:
  m_ObjectHideFlags: 0
  serializedVersion: 2
  m_Modification:
    m_TransformParent: {fileID: 1134808359787266312}
    m_Modifications:
    - target: {fileID: 140260, guid: 3bb902e869a9e9647a693b910b597540, type: 3}
      propertyPath: m_Name
      value: Window 6
      objectReference: {fileID: 0}
    - target: {fileID: 406922, guid: 3bb902e869a9e9647a693b910b597540, type: 3}
      propertyPath: m_LocalPosition.x
      value: -6.67
      objectReference: {fileID: 0}
    - target: {fileID: 406922, guid: 3bb902e869a9e9647a693b910b597540, type: 3}
      propertyPath: m_LocalPosition.y
      value: -1.13
      objectReference: {fileID: 0}
    - target: {fileID: 406922, guid: 3bb902e869a9e9647a693b910b597540, type: 3}
      propertyPath: m_LocalPosition.z
      value: -0.03
      objectReference: {fileID: 0}
    - target: {fileID: 406922, guid: 3bb902e869a9e9647a693b910b597540, type: 3}
      propertyPath: m_LocalRotation.x
      value: 0
      objectReference: {fileID: 0}
    - target: {fileID: 406922, guid: 3bb902e869a9e9647a693b910b597540, type: 3}
      propertyPath: m_LocalRotation.y
      value: 0.7071068
      objectReference: {fileID: 0}
    - target: {fileID: 406922, guid: 3bb902e869a9e9647a693b910b597540, type: 3}
      propertyPath: m_LocalRotation.z
      value: 0
      objectReference: {fileID: 0}
    - target: {fileID: 406922, guid: 3bb902e869a9e9647a693b910b597540, type: 3}
      propertyPath: m_LocalRotation.w
      value: 0.7071067
      objectReference: {fileID: 0}
    - target: {fileID: 406922, guid: 3bb902e869a9e9647a693b910b597540, type: 3}
      propertyPath: m_RootOrder
      value: 7
      objectReference: {fileID: 0}
    - target: {fileID: 406922, guid: 3bb902e869a9e9647a693b910b597540, type: 3}
      propertyPath: m_LocalEulerAnglesHint.x
      value: 0
      objectReference: {fileID: 0}
    - target: {fileID: 406922, guid: 3bb902e869a9e9647a693b910b597540, type: 3}
      propertyPath: m_LocalEulerAnglesHint.y
      value: 0
      objectReference: {fileID: 0}
    - target: {fileID: 406922, guid: 3bb902e869a9e9647a693b910b597540, type: 3}
      propertyPath: m_LocalEulerAnglesHint.z
      value: 0
      objectReference: {fileID: 0}
    m_RemovedComponents: []
  m_SourcePrefab: {fileID: 100100000, guid: 3bb902e869a9e9647a693b910b597540, type: 3}
--- !u!1001 &1134808360036376910
PrefabInstance:
  m_ObjectHideFlags: 0
  serializedVersion: 2
  m_Modification:
    m_TransformParent: {fileID: 1134808359787266312}
    m_Modifications:
    - target: {fileID: 100056, guid: d79df3ddea6cfaf418c83aa732b890c1, type: 3}
      propertyPath: m_Name
      value: Luke
      objectReference: {fileID: 0}
    - target: {fileID: 441960, guid: d79df3ddea6cfaf418c83aa732b890c1, type: 3}
      propertyPath: m_LocalPosition.x
      value: 3.01
      objectReference: {fileID: 0}
    - target: {fileID: 441960, guid: d79df3ddea6cfaf418c83aa732b890c1, type: 3}
      propertyPath: m_LocalPosition.y
      value: 10.85
      objectReference: {fileID: 0}
    - target: {fileID: 441960, guid: d79df3ddea6cfaf418c83aa732b890c1, type: 3}
      propertyPath: m_LocalPosition.z
      value: 3.86
      objectReference: {fileID: 0}
    - target: {fileID: 441960, guid: d79df3ddea6cfaf418c83aa732b890c1, type: 3}
      propertyPath: m_LocalRotation.x
      value: 0
      objectReference: {fileID: 0}
    - target: {fileID: 441960, guid: d79df3ddea6cfaf418c83aa732b890c1, type: 3}
      propertyPath: m_LocalRotation.y
      value: 0
      objectReference: {fileID: 0}
    - target: {fileID: 441960, guid: d79df3ddea6cfaf418c83aa732b890c1, type: 3}
      propertyPath: m_LocalRotation.z
      value: 0
      objectReference: {fileID: 0}
    - target: {fileID: 441960, guid: d79df3ddea6cfaf418c83aa732b890c1, type: 3}
      propertyPath: m_LocalRotation.w
      value: 1
      objectReference: {fileID: 0}
    - target: {fileID: 441960, guid: d79df3ddea6cfaf418c83aa732b890c1, type: 3}
      propertyPath: m_RootOrder
      value: 10
      objectReference: {fileID: 0}
    - target: {fileID: 441960, guid: d79df3ddea6cfaf418c83aa732b890c1, type: 3}
      propertyPath: m_LocalEulerAnglesHint.x
      value: 0
      objectReference: {fileID: 0}
    - target: {fileID: 441960, guid: d79df3ddea6cfaf418c83aa732b890c1, type: 3}
      propertyPath: m_LocalEulerAnglesHint.y
      value: 0
      objectReference: {fileID: 0}
    - target: {fileID: 441960, guid: d79df3ddea6cfaf418c83aa732b890c1, type: 3}
      propertyPath: m_LocalEulerAnglesHint.z
      value: 0
      objectReference: {fileID: 0}
    m_RemovedComponents: []
  m_SourcePrefab: {fileID: 100100000, guid: d79df3ddea6cfaf418c83aa732b890c1, type: 3}
--- !u!1001 &1134808360042752743
PrefabInstance:
  m_ObjectHideFlags: 0
  serializedVersion: 2
  m_Modification:
    m_TransformParent: {fileID: 1134808359787266312}
    m_Modifications:
    - target: {fileID: 113422, guid: c82ae9a52d7fbcf468c00e3d185b7cbe, type: 3}
      propertyPath: m_Name
      value: Duct 3
      objectReference: {fileID: 0}
    - target: {fileID: 429918, guid: c82ae9a52d7fbcf468c00e3d185b7cbe, type: 3}
      propertyPath: m_LocalPosition.x
      value: 2.77
      objectReference: {fileID: 0}
    - target: {fileID: 429918, guid: c82ae9a52d7fbcf468c00e3d185b7cbe, type: 3}
      propertyPath: m_LocalPosition.y
      value: 11.41
      objectReference: {fileID: 0}
    - target: {fileID: 429918, guid: c82ae9a52d7fbcf468c00e3d185b7cbe, type: 3}
      propertyPath: m_LocalPosition.z
      value: 0.04
      objectReference: {fileID: 0}
    - target: {fileID: 429918, guid: c82ae9a52d7fbcf468c00e3d185b7cbe, type: 3}
      propertyPath: m_LocalRotation.x
      value: 0
      objectReference: {fileID: 0}
    - target: {fileID: 429918, guid: c82ae9a52d7fbcf468c00e3d185b7cbe, type: 3}
      propertyPath: m_LocalRotation.y
      value: 1
      objectReference: {fileID: 0}
    - target: {fileID: 429918, guid: c82ae9a52d7fbcf468c00e3d185b7cbe, type: 3}
      propertyPath: m_LocalRotation.z
      value: 0
      objectReference: {fileID: 0}
    - target: {fileID: 429918, guid: c82ae9a52d7fbcf468c00e3d185b7cbe, type: 3}
      propertyPath: m_LocalRotation.w
      value: -0.00000016292068
      objectReference: {fileID: 0}
    - target: {fileID: 429918, guid: c82ae9a52d7fbcf468c00e3d185b7cbe, type: 3}
      propertyPath: m_RootOrder
      value: 13
      objectReference: {fileID: 0}
    - target: {fileID: 429918, guid: c82ae9a52d7fbcf468c00e3d185b7cbe, type: 3}
      propertyPath: m_LocalEulerAnglesHint.x
      value: 0
      objectReference: {fileID: 0}
    - target: {fileID: 429918, guid: c82ae9a52d7fbcf468c00e3d185b7cbe, type: 3}
      propertyPath: m_LocalEulerAnglesHint.y
      value: 0
      objectReference: {fileID: 0}
    - target: {fileID: 429918, guid: c82ae9a52d7fbcf468c00e3d185b7cbe, type: 3}
      propertyPath: m_LocalEulerAnglesHint.z
      value: 0
      objectReference: {fileID: 0}
    m_RemovedComponents: []
  m_SourcePrefab: {fileID: 100100000, guid: c82ae9a52d7fbcf468c00e3d185b7cbe, type: 3}
--- !u!1001 &1134808360071915267
PrefabInstance:
  m_ObjectHideFlags: 0
  serializedVersion: 2
  m_Modification:
    m_TransformParent: {fileID: 1134808359787266312}
    m_Modifications:
    - target: {fileID: 113422, guid: c82ae9a52d7fbcf468c00e3d185b7cbe, type: 3}
      propertyPath: m_Name
      value: Duct 1
      objectReference: {fileID: 0}
    - target: {fileID: 429918, guid: c82ae9a52d7fbcf468c00e3d185b7cbe, type: 3}
      propertyPath: m_LocalPosition.x
      value: -1.92
      objectReference: {fileID: 0}
    - target: {fileID: 429918, guid: c82ae9a52d7fbcf468c00e3d185b7cbe, type: 3}
      propertyPath: m_LocalPosition.y
      value: 11.41
      objectReference: {fileID: 0}
    - target: {fileID: 429918, guid: c82ae9a52d7fbcf468c00e3d185b7cbe, type: 3}
      propertyPath: m_LocalPosition.z
      value: -5.49
      objectReference: {fileID: 0}
    - target: {fileID: 429918, guid: c82ae9a52d7fbcf468c00e3d185b7cbe, type: 3}
      propertyPath: m_LocalRotation.x
      value: 0
      objectReference: {fileID: 0}
    - target: {fileID: 429918, guid: c82ae9a52d7fbcf468c00e3d185b7cbe, type: 3}
      propertyPath: m_LocalRotation.y
      value: 0
      objectReference: {fileID: 0}
    - target: {fileID: 429918, guid: c82ae9a52d7fbcf468c00e3d185b7cbe, type: 3}
      propertyPath: m_LocalRotation.z
      value: 0
      objectReference: {fileID: 0}
    - target: {fileID: 429918, guid: c82ae9a52d7fbcf468c00e3d185b7cbe, type: 3}
      propertyPath: m_LocalRotation.w
      value: 1
      objectReference: {fileID: 0}
    - target: {fileID: 429918, guid: c82ae9a52d7fbcf468c00e3d185b7cbe, type: 3}
      propertyPath: m_RootOrder
      value: 11
      objectReference: {fileID: 0}
    - target: {fileID: 429918, guid: c82ae9a52d7fbcf468c00e3d185b7cbe, type: 3}
      propertyPath: m_LocalEulerAnglesHint.x
      value: 0
      objectReference: {fileID: 0}
    - target: {fileID: 429918, guid: c82ae9a52d7fbcf468c00e3d185b7cbe, type: 3}
      propertyPath: m_LocalEulerAnglesHint.y
      value: 0
      objectReference: {fileID: 0}
    - target: {fileID: 429918, guid: c82ae9a52d7fbcf468c00e3d185b7cbe, type: 3}
      propertyPath: m_LocalEulerAnglesHint.z
      value: 0
      objectReference: {fileID: 0}
    m_RemovedComponents: []
  m_SourcePrefab: {fileID: 100100000, guid: c82ae9a52d7fbcf468c00e3d185b7cbe, type: 3}
--- !u!1001 &1134808360142809789
PrefabInstance:
  m_ObjectHideFlags: 0
  serializedVersion: 2
  m_Modification:
    m_TransformParent: {fileID: 1134808359787266312}
    m_Modifications:
    - target: {fileID: 113422, guid: c82ae9a52d7fbcf468c00e3d185b7cbe, type: 3}
      propertyPath: m_Name
      value: Duct 2
      objectReference: {fileID: 0}
    - target: {fileID: 429918, guid: c82ae9a52d7fbcf468c00e3d185b7cbe, type: 3}
      propertyPath: m_LocalPosition.x
      value: 3.04
      objectReference: {fileID: 0}
    - target: {fileID: 429918, guid: c82ae9a52d7fbcf468c00e3d185b7cbe, type: 3}
      propertyPath: m_LocalPosition.y
      value: 11.41
      objectReference: {fileID: 0}
    - target: {fileID: 429918, guid: c82ae9a52d7fbcf468c00e3d185b7cbe, type: 3}
      propertyPath: m_LocalPosition.z
      value: -5.49
      objectReference: {fileID: 0}
    - target: {fileID: 429918, guid: c82ae9a52d7fbcf468c00e3d185b7cbe, type: 3}
      propertyPath: m_LocalRotation.x
      value: 0
      objectReference: {fileID: 0}
    - target: {fileID: 429918, guid: c82ae9a52d7fbcf468c00e3d185b7cbe, type: 3}
      propertyPath: m_LocalRotation.y
      value: 1
      objectReference: {fileID: 0}
    - target: {fileID: 429918, guid: c82ae9a52d7fbcf468c00e3d185b7cbe, type: 3}
      propertyPath: m_LocalRotation.z
      value: 0
      objectReference: {fileID: 0}
    - target: {fileID: 429918, guid: c82ae9a52d7fbcf468c00e3d185b7cbe, type: 3}
      propertyPath: m_LocalRotation.w
      value: -0.00000016292068
      objectReference: {fileID: 0}
    - target: {fileID: 429918, guid: c82ae9a52d7fbcf468c00e3d185b7cbe, type: 3}
      propertyPath: m_RootOrder
      value: 12
      objectReference: {fileID: 0}
    - target: {fileID: 429918, guid: c82ae9a52d7fbcf468c00e3d185b7cbe, type: 3}
      propertyPath: m_LocalEulerAnglesHint.x
      value: 0
      objectReference: {fileID: 0}
    - target: {fileID: 429918, guid: c82ae9a52d7fbcf468c00e3d185b7cbe, type: 3}
      propertyPath: m_LocalEulerAnglesHint.y
      value: 0
      objectReference: {fileID: 0}
    - target: {fileID: 429918, guid: c82ae9a52d7fbcf468c00e3d185b7cbe, type: 3}
      propertyPath: m_LocalEulerAnglesHint.z
      value: 0
      objectReference: {fileID: 0}
    m_RemovedComponents: []
  m_SourcePrefab: {fileID: 100100000, guid: c82ae9a52d7fbcf468c00e3d185b7cbe, type: 3}
--- !u!1001 &1134808360176805811
PrefabInstance:
  m_ObjectHideFlags: 0
  serializedVersion: 2
  m_Modification:
    m_TransformParent: {fileID: 1134808359787266312}
    m_Modifications:
    - target: {fileID: 180750, guid: d68ef7a2a7a25ca499eb4d0024f2ff0d, type: 3}
      propertyPath: m_Name
      value: House Part 1
      objectReference: {fileID: 0}
    - target: {fileID: 440132, guid: d68ef7a2a7a25ca499eb4d0024f2ff0d, type: 3}
      propertyPath: m_LocalPosition.x
      value: 0
      objectReference: {fileID: 0}
    - target: {fileID: 440132, guid: d68ef7a2a7a25ca499eb4d0024f2ff0d, type: 3}
      propertyPath: m_LocalPosition.y
      value: 7.8700004
      objectReference: {fileID: 0}
    - target: {fileID: 440132, guid: d68ef7a2a7a25ca499eb4d0024f2ff0d, type: 3}
      propertyPath: m_LocalPosition.z
      value: 0
      objectReference: {fileID: 0}
    - target: {fileID: 440132, guid: d68ef7a2a7a25ca499eb4d0024f2ff0d, type: 3}
      propertyPath: m_LocalRotation.x
      value: 0
      objectReference: {fileID: 0}
    - target: {fileID: 440132, guid: d68ef7a2a7a25ca499eb4d0024f2ff0d, type: 3}
      propertyPath: m_LocalRotation.y
      value: 0
      objectReference: {fileID: 0}
    - target: {fileID: 440132, guid: d68ef7a2a7a25ca499eb4d0024f2ff0d, type: 3}
      propertyPath: m_LocalRotation.z
      value: 0
      objectReference: {fileID: 0}
    - target: {fileID: 440132, guid: d68ef7a2a7a25ca499eb4d0024f2ff0d, type: 3}
      propertyPath: m_LocalRotation.w
      value: 1
      objectReference: {fileID: 0}
    - target: {fileID: 440132, guid: d68ef7a2a7a25ca499eb4d0024f2ff0d, type: 3}
      propertyPath: m_RootOrder
      value: 0
      objectReference: {fileID: 0}
    - target: {fileID: 440132, guid: d68ef7a2a7a25ca499eb4d0024f2ff0d, type: 3}
      propertyPath: m_LocalEulerAnglesHint.x
      value: 0
      objectReference: {fileID: 0}
    - target: {fileID: 440132, guid: d68ef7a2a7a25ca499eb4d0024f2ff0d, type: 3}
      propertyPath: m_LocalEulerAnglesHint.y
      value: 0
      objectReference: {fileID: 0}
    - target: {fileID: 440132, guid: d68ef7a2a7a25ca499eb4d0024f2ff0d, type: 3}
      propertyPath: m_LocalEulerAnglesHint.z
      value: 0
      objectReference: {fileID: 0}
    m_RemovedComponents: []
  m_SourcePrefab: {fileID: 100100000, guid: d68ef7a2a7a25ca499eb4d0024f2ff0d, type: 3}
--- !u!1001 &1134808360287800862
PrefabInstance:
  m_ObjectHideFlags: 0
  serializedVersion: 2
  m_Modification:
    m_TransformParent: {fileID: 1134808359787266312}
    m_Modifications:
    - target: {fileID: 125754, guid: 46fff5d42f5087d4f8b7dea478c55862, type: 3}
      propertyPath: m_Name
      value: Window 2
      objectReference: {fileID: 0}
    - target: {fileID: 474578, guid: 46fff5d42f5087d4f8b7dea478c55862, type: 3}
      propertyPath: m_LocalPosition.x
      value: 3.06
      objectReference: {fileID: 0}
    - target: {fileID: 474578, guid: 46fff5d42f5087d4f8b7dea478c55862, type: 3}
      propertyPath: m_LocalPosition.y
      value: 6.66
      objectReference: {fileID: 0}
    - target: {fileID: 474578, guid: 46fff5d42f5087d4f8b7dea478c55862, type: 3}
      propertyPath: m_LocalPosition.z
      value: -6.94
      objectReference: {fileID: 0}
    - target: {fileID: 474578, guid: 46fff5d42f5087d4f8b7dea478c55862, type: 3}
      propertyPath: m_LocalRotation.x
      value: 0
      objectReference: {fileID: 0}
    - target: {fileID: 474578, guid: 46fff5d42f5087d4f8b7dea478c55862, type: 3}
      propertyPath: m_LocalRotation.y
      value: 0
      objectReference: {fileID: 0}
    - target: {fileID: 474578, guid: 46fff5d42f5087d4f8b7dea478c55862, type: 3}
      propertyPath: m_LocalRotation.z
      value: 0
      objectReference: {fileID: 0}
    - target: {fileID: 474578, guid: 46fff5d42f5087d4f8b7dea478c55862, type: 3}
      propertyPath: m_LocalRotation.w
      value: 1
      objectReference: {fileID: 0}
    - target: {fileID: 474578, guid: 46fff5d42f5087d4f8b7dea478c55862, type: 3}
      propertyPath: m_RootOrder
      value: 2
      objectReference: {fileID: 0}
    - target: {fileID: 474578, guid: 46fff5d42f5087d4f8b7dea478c55862, type: 3}
      propertyPath: m_LocalEulerAnglesHint.x
      value: 0
      objectReference: {fileID: 0}
    - target: {fileID: 474578, guid: 46fff5d42f5087d4f8b7dea478c55862, type: 3}
      propertyPath: m_LocalEulerAnglesHint.y
      value: 0
      objectReference: {fileID: 0}
    - target: {fileID: 474578, guid: 46fff5d42f5087d4f8b7dea478c55862, type: 3}
      propertyPath: m_LocalEulerAnglesHint.z
      value: 0
      objectReference: {fileID: 0}
    m_RemovedComponents: []
  m_SourcePrefab: {fileID: 100100000, guid: 46fff5d42f5087d4f8b7dea478c55862, type: 3}
